…
``` r

library(servermonks)
#> Loading required package: ggplot2
#> Warning: package 'ggplot2' was built under R version 4.2.2

print(ballot_question)
#> # A tibble: 59 × 5
#>    county       yes_num no_num yes_per no_per
#>    <chr>          <dbl>  <dbl>   <dbl>  <dbl>
#>  1 Alameda       108081 465901   0.188  0.812
#>  2 Alpine           225    354   0.389  0.611
#>  3 Amador         12895   6957   0.65   0.35 
#>  4 Butte          43129  36128   0.544  0.456
#>  5 Calaveras      15133   8320   0.645  0.355
#>  6 Colusa          4037   2027   0.666  0.334
#>  7 Contra Costa  130058 324747   0.286  0.714
#>  8 Del Norte       5243   3505   0.599  0.401
#>  9 El Dorado      58393  39907   0.594  0.406
#> 10 Fresno        133309 126488   0.513  0.487
#> # … with 49 more rows
```
…
